000000000011111111110000000000000000000
000000001111111111111110000000000000000
000001111111111111111111111000000000000
001111111111111000000011111111000000000
011111111111110000000000011111110000000
111111111111110000000000011111111100000
001111111111110000000000011111111111100
000000111111111100000000111111111111110
000000000011111111111111111111111111111
000000000000011111111111111111111111111
000000000000111111111111111111111111100
000000000011111111111111111111111100000
000000011111111111111111111111110000000
000000111111111111111111111110000000000
000111111111111111111111110000000000000
011111111111111111111110000000000000000
111111111111111111110000000000000000000
111111111111111100000000000000000000000
001111111100000000000000000000000000000
000011110000000000000000000000000000000
