0000000000000000000000000000000000000000
1111111111111111111111111111111100000000
2220000000000000000000000000012222110000
2220000000000000000000000000000001221100
2220000000011100000000000000000000012210
2221111000022200000011111101111100001221
0000122200022200001222222222222222000222
0000022200022200002220001222000122200122
0000022200022200002220000222000122200122
0000022200022200002220000222000122200122
0000022200022200002220000222000122200122
0000022200022200000000000000000222200122
0000022200012220000000000000001222100122
0000012210001222111111111111112220000122
0000001221000000222222222222210000000122
0000000122110000000000000000000000000222
0000000001222111000000000000000000011222
0000000000000122222222222222222222222222
0000000000000000000000000000000000000000
0000000000000000000000000000000000000000
